lab15
…
To determine whether this difference is indeed by chance or intrinsic in the real data, a permutation test is appropriate. By shuffling the olympic data into two subgroups representing random summer and winter seasons, modeling these datasets and comparing their difference in slopes with the difference in the real data we can determine if the difference in slopes between the two seasons in statistically significant.

After conducting the test we have a p value of 0 indicating there is a statistically significant difference between the slopes of the summer and winter models. Therefore the body types of atheletes that compete in winter vs summer games are statistically likely to be different.

Note on computational efficiency: the way the permuation test was implemented was not very efficient as it forces the computer to fit many models. However, it was necessary to determine whether the real data was an outlier or not. I am not aware of any more effient way to program this function, but if there is a more efficent method please let me know, Im sure it will be valuable at some point in the future.

The ethical implications of these findings are that they may impact coaches to influence their atheletes to adhere to more stringent programs in order for them to achieve the desired bodytype that is suggested as ideal in the models above. However, it should be noted that these models account for all olympic atheletes regardless of if they won medals or not. Therefore, strictly applying an athelete to the model may not result in improved results.

Reflection: I think that for my six month and 5 year goals, my attitude has changed towards what I plan to be doing. I want to find a way I could apply statistics and programming in some socially responsible way. I feel like I understand much better what it means to do statistical programming because of this course, and see many areas where it could be applied but hasnt yet. I learned alot about R, and data-vis, and working in a team. I would tell myself to keep starting projects early, stop spending as much time on formatting/fine details, and start finishing class exercises at home.

Emily Archambault

Sub-Question: How does the number of summer Olympic medals received by the United States compare to the other most populous countries in the world?

## # A tibble: 271,116 x 15
##       ID Name  Sex     Age Height Weight Team  NOC   Games  Year Season
##    <dbl> <chr> <chr> <dbl>  <dbl>  <dbl> <chr> <chr> <chr> <dbl> <chr> 
##  1     1 A Di M        24    180     80 China CHN   1992  1992 Summer
##  2     2 A La M        23    170     60 China CHN   2012  2012 Summer
##  3     3 Gunn M        24     NA     NA Denm DEN   1920  1920 Summer
##  4     4 Edga M        34     NA     NA Denm DEN   1900  1900 Summer
##  5     5 Chri F        21    185     82 Neth NED   1988  1988 Winter
##  6     5 Chri F        21    185     82 Neth NED   1988  1988 Winter
##  7     5 Chri F        25    185     82 Neth NED   1992  1992 Winter
##  8     5 Chri F        25    185     82 Neth NED   1992  1992 Winter
##  9     5 Chri F        27    185     82 Neth NED   1994  1994 Winter
## 10     5 Chri F        27    185     82 Neth NED   1994  1994 Winter
## #  with 271,106 more rows, and 4 more variables: City <chr>, Sport <chr>,
## #   Event <chr>, Medal <chr>
…
## [1] 1

I found that there is a significant difference between the mean weight percentile and it is higher for summer athletes. There are no glaring ethical implications of this finding. This shows that summer sports optimize with athletes that are in a higher weight percentile than winter sports.

Reflection: I feel like we achieved our main goals as a team for the course. Our comfortability with data analysis increased as the semester went on. Also, our teamwork got a lot better. If I could go back in time I would suggest that our team create and maintain better communication habits. It wasnt a huge issue, but sometimes things got a little confusing near the deadline. I feel like this class has only reinforced my long term goals as a data scientists. It is easy to see how the skills from this class will apply to other projects in the future. If I could go back in time I would tell myself to read the book earlier.

Jingzhi Zhang

Sub-Question: How does the age of athletes affects the number of medals their country totally win in 2016?

## # A tibble: 271,116 x 15
##       ID Name  Sex     Age Height Weight Team  NOC   Games  Year Season
##    <dbl> <chr> <chr> <dbl>  <dbl>  <dbl> <chr> <chr> <chr> <dbl> <chr> 
##  1     1 A Di M        24    180     80 China CHN   1992  1992 Summer
##  2     2 A La M        23    170     60 China CHN   2012  2012 Summer
##  3     3 Gunn M        24     NA     NA Denm DEN   1920  1920 Summer
##  4     4 Edga M        34     NA     NA Denm DEN   1900  1900 Summer
##  5     5 Chri F        21    185     82 Neth NED   1988  1988 Winter
##  6     5 Chri F        21    185     82 Neth NED   1988  1988 Winter
##  7     5 Chri F        25    185     82 Neth NED   1992  1992 Winter
##  8     5 Chri F        25    185     82 Neth NED   1992  1992 Winter
##  9     5 Chri F        27    185     82 Neth NED   1994  1994 Winter
## 10     5 Chri F        27    185     82 Neth NED   1994  1994 Winter
## #  with 271,106 more rows, and 4 more variables: City <chr>, Sport <chr>,
## #   Event <chr>, Medal <chr>

## # A tibble: 271,116 x 15
##       ID Name  Sex     Age Height Weight Team  NOC   Games  Year Season
##    <dbl> <chr> <chr> <dbl>  <dbl>  <dbl> <chr> <chr> <chr> <dbl> <chr> 
##  1  1724 Aris M        NA     NA     NA Gree GRE   1896  1896 Summer
##  2  1724 Aris M        NA     NA     NA Gree GRE   1896  1896 Summer
##  3  1725 "Kon M        NA     NA     NA Gree GRE   1896  1896 Summer
##  4  1725 "Kon M        NA     NA     NA Gree GRE   1896  1896 Summer
##  5  4113 Anas M        NA     NA     NA Gree GRE   1896  1896 Summer
##  6  4116 Ioan M        NA     NA     NA Gree GRE   1896  1896 Summer
##  7  4189 Niko M        NA     NA     NA Gree GRE   1896  1896 Summer
##  8  4431 Geor M        NA     NA     NA Gree GRE   1896  1896 Summer
##  9  4493 Ante M        NA     NA     NA Gree GRE   1896  1896 Summer
## 10  5660 Geor M        NA     NA     NA Gree GRE   1896  1896 Summer
## #  with 271,106 more rows, and 4 more variables: City <chr>, Sport <chr>,
## #   Event <chr>, Medal <chr>
…
To determine whether this difference is indeed by chance or intrinsic in the real data, a permutation test is appropriate. By shuffling the olympic data into two subgroups representing random summer and winter seasons, modeling these datasets and comparing their difference in slopes with the difference in the real data we can determine if the difference in slopes between the two seasons in statistically significant.

After conducting the test we have a p value of 0 indicating there is a statistically significant difference between the slopes of the summer and winter models. Therefore the body types of atheletes that compete in winter vs summer games are statistically likely to be different.

Note on computational efficiency: the way the permuation test was implemented was not very efficient as it forces the computer to fit many models. However, it was necessary to determine whether the real data was an outlier or not. I am not aware of any more effient way to program this function, but if there is a more efficent method please let me know, Im sure it will be valuable at some point in the future.

The ethical implications of these findings are that they may impact coaches to influence their atheletes to adhere to more stringent programs in order for them to achieve the desired bodytype that is suggested as ideal in the models above. However, it should be noted that these models account for all olympic atheletes regardless of if they won medals or not. Therefore, strictly applying an athelete to the model may not result in improved results.

Reflection: I think that for my six month and 5 year goals, my attitude has changed towards what I plan to be doing. I want to find a way I could apply statistics and programming in some socially responsible way. I feel like I understand much better what it means to do statistical programming because of this course, and see many areas where it could be applied but hasnt yet. I learned alot about R, and data-vis, and working in a team. I would tell myself to keep starting projects early, stop spending as much time on formatting/fine details, and start finishing class exercises at home.

Emily Archambault

Sub-Question: How does the number of summer Olympic medals received by the United States compare to the other most populous countries in the world?

## # A tibble: 271,116 x 15
##       ID Name  Sex     Age Height Weight Team  NOC   Games  Year Season City 
##    <dbl> <chr> <chr> <dbl>  <dbl>  <dbl> <chr> <chr> <chr> <dbl> <chr>  <chr>
##  1     1 A Di M        24    180     80 China CHN   1992  1992 Summer Barc
##  2     2 A La M        23    170     60 China CHN   2012  2012 Summer Lond
##  3     3 Gunn M        24     NA     NA Denm DEN   1920  1920 Summer Antw
##  4     4 Edga M        34     NA     NA Denm DEN   1900  1900 Summer Paris
##  5     5 Chri F        21    185     82 Neth NED   1988  1988 Winter Calg
##  6     5 Chri F        21    185     82 Neth NED   1988  1988 Winter Calg
##  7     5 Chri F        25    185     82 Neth NED   1992  1992 Winter Albe
##  8     5 Chri F        25    185     82 Neth NED   1992  1992 Winter Albe
##  9     5 Chri F        27    185     82 Neth NED   1994  1994 Winter Lill
## 10     5 Chri F        27    185     82 Neth NED   1994  1994 Winter Lill
## #  with 271,106 more rows, and 3 more variables: Sport <chr>, Event <chr>,
## #   Medal <chr>
…
## [1] 1

I found that there is a significant difference between the mean weight percentile and it is higher for summer athletes. There are no glaring ethical implications of this finding. This shows that summer sports optimize with athletes that are in a higher weight percentile than winter sports.

Reflection: I feel like we achieved our main goals as a team for the course. Our comfortability with data analysis increased as the semester went on. Also, our teamwork got a lot better. If I could go back in time I would suggest that our team create and maintain better communication habits. It wasnt a huge issue, but sometimes things got a little confusing near the deadline. I feel like this class has only reinforced my long term goals as a data scientists. It is easy to see how the skills from this class will apply to other projects in the future. If I could go back in time I would tell myself to read the book earlier.

Jingzhi Zhang

Sub-Question: How does the age of athletes affects the number of medals their country totally win in 2016?

## # A tibble: 271,116 x 15
##       ID Name  Sex     Age Height Weight Team  NOC   Games  Year Season City 
##    <dbl> <chr> <chr> <dbl>  <dbl>  <dbl> <chr> <chr> <chr> <dbl> <chr>  <chr>
##  1     1 A Di M        24    180     80 China CHN   1992  1992 Summer Barc
##  2     2 A La M        23    170     60 China CHN   2012  2012 Summer Lond
##  3     3 Gunn M        24     NA     NA Denm DEN   1920  1920 Summer Antw
##  4     4 Edga M        34     NA     NA Denm DEN   1900  1900 Summer Paris
##  5     5 Chri F        21    185     82 Neth NED   1988  1988 Winter Calg
##  6     5 Chri F        21    185     82 Neth NED   1988  1988 Winter Calg
##  7     5 Chri F        25    185     82 Neth NED   1992  1992 Winter Albe
##  8     5 Chri F        25    185     82 Neth NED   1992  1992 Winter Albe
##  9     5 Chri F        27    185     82 Neth NED   1994  1994 Winter Lill
## 10     5 Chri F        27    185     82 Neth NED   1994  1994 Winter Lill
## #  with 271,106 more rows, and 3 more variables: Sport <chr>, Event <chr>,
## #   Medal <chr>

## # A tibble: 271,116 x 15
##       ID Name  Sex     Age Height Weight Team  NOC   Games  Year Season City 
##    <dbl> <chr> <chr> <dbl>  <dbl>  <dbl> <chr> <chr> <chr> <dbl> <chr>  <chr>
##  1  1724 Aris M        NA     NA     NA Gree GRE   1896  1896 Summer Athi
##  2  1724 Aris M        NA     NA     NA Gree GRE   1896  1896 Summer Athi
##  3  1725 "Kon M        NA     NA     NA Gree GRE   1896  1896 Summer Athi
##  4  1725 "Kon M        NA     NA     NA Gree GRE   1896  1896 Summer Athi
##  5  4113 Anas M        NA     NA     NA Gree GRE   1896  1896 Summer Athi
##  6  4116 Ioan M        NA     NA     NA Gree GRE   1896  1896 Summer Athi
##  7  4189 Niko M        NA     NA     NA Gree GRE   1896  1896 Summer Athi
##  8  4431 Geor M        NA     NA     NA Gree GRE   1896  1896 Summer Athi
##  9  4493 Ante M        NA     NA     NA Gree GRE   1896  1896 Summer Athi
## 10  5660 Geor M        NA     NA     NA Gree GRE   1896  1896 Summer Athi
## #  with 271,106 more rows, and 3 more variables: Sport <chr>, Event <chr>,
## #   Medal <chr>
…
